236 = {

    # Misc
    culture = vertesker
    religion = cult_of_the_dame

    # History
}

238 = {

    # Misc
    culture = gawedi
    religion = cult_of_the_dame

    # History
}

244 = {

    # Misc
    culture = damerian
    religion = cult_of_the_dame

    # History
}

245 = {

    # Misc
    culture = damerian
    religion = cult_of_the_dame

    # History
}

246 = {

    # Misc
    culture = gawedi
    religion = cult_of_the_dame

    # History
}

247 = {

    # Misc
    culture = gawedi
    religion = cult_of_the_dame

    # History
}

249 = {

    # Misc
    culture = vertesker
    religion = cult_of_the_dame

    # History
}

250 = {

    # Misc
    culture = gawedi
    religion = cult_of_the_dame

    # History
}

252 = {

    # Misc
    culture = damerian
    religion = cult_of_the_dame

    # History
}

253 = {

    # Misc
    culture = vertesker
    religion = cult_of_the_dame

    # History
}

256 = {

    # Misc
    culture = moon_elvish
    religion = cult_of_the_dame

    # History
}

334 = {

    # Misc
    culture = gawedi
    religion = cult_of_the_dame

    # History
}

349 = {

    # Misc
    culture = moon_elvish
    religion = cult_of_the_dame

    # History
}