﻿object={
	name="amb_3D_desert_emitter"
	clamp_to_water_level=no
	render_under_water=no
	generated_content=no
	layer="building_layer"
	entity="map_ambient_3D_desert"
	count=147
	transform="4502.864258 0.000000 412.265625 0.000000 0.000000 0.000000 1.000000 1.000000 1.000000 1.000000
220.487778 0.000000 726.859375 0.000000 0.000000 0.000000 1.000000 1.000000 1.000000 1.000000
392.847412 0.000000 670.562988 0.000000 0.000000 0.000000 1.000000 1.000000 1.000000 1.000000
576.211487 0.000000 718.023987 0.000000 0.000000 0.000000 1.000000 1.000000 1.000000 1.000000
779.557007 0.000000 693.463013 0.000000 0.000000 0.000000 1.000000 1.000000 1.000000 1.000000
1003.807495 0.000000 694.204834 0.000000 0.000000 0.000000 1.000000 1.000000 1.000000 1.000000
1250.975952 0.000000 675.295715 0.000000 0.000000 0.000000 1.000000 1.000000 1.000000 1.000000
1500.407593 0.000000 607.811768 0.000000 0.000000 0.000000 1.000000 1.000000 1.000000 1.000000
1746.114502 0.000000 528.022705 0.000000 0.000000 0.000000 1.000000 1.000000 1.000000 1.000000
1958.525757 0.000000 574.321472 0.000000 0.000000 0.000000 1.000000 1.000000 1.000000 1.000000
2197.037109 0.000000 529.284668 0.000000 0.000000 0.000000 1.000000 1.000000 1.000000 1.000000
2447.652100 0.000000 621.342407 0.000000 0.000000 0.000000 1.000000 1.000000 1.000000 1.000000
2679.200684 0.000000 677.697510 0.000000 0.000000 0.000000 1.000000 1.000000 1.000000 1.000000
2949.817871 0.000000 621.617126 0.000000 0.000000 0.000000 1.000000 1.000000 1.000000 1.000000
3287.066162 0.000000 484.672180 0.000000 0.000000 0.000000 1.000000 1.000000 1.000000 1.000000
3531.812012 0.000000 281.206726 0.000000 0.000000 0.000000 1.000000 1.000000 1.000000 1.000000
3352.577637 0.000000 135.012833 0.000000 0.000000 0.000000 1.000000 1.000000 1.000000 1.000000
223.321609 0.000000 838.588684 0.000000 0.000000 0.000000 1.000000 1.000000 1.000000 1.000000
229.320236 0.000000 948.037476 0.000000 0.000000 0.000000 1.000000 1.000000 1.000000 1.000000
307.409912 0.000000 1059.383301 0.000000 0.000000 0.000000 1.000000 1.000000 1.000000 1.000000
488.003448 0.000000 915.182251 0.000000 0.000000 0.000000 1.000000 1.000000 1.000000 1.000000
653.557617 0.000000 839.074036 0.000000 0.000000 0.000000 1.000000 1.000000 1.000000 1.000000
653.548157 0.000000 947.838989 0.000000 0.000000 0.000000 1.000000 1.000000 1.000000 1.000000
551.917114 0.000000 1067.900146 0.000000 0.000000 0.000000 1.000000 1.000000 1.000000 1.000000
660.897705 0.000000 1111.363281 0.000000 0.000000 0.000000 1.000000 1.000000 1.000000 1.000000
769.778381 0.000000 1180.431030 0.000000 0.000000 0.000000 1.000000 1.000000 1.000000 1.000000
604.309875 0.000000 1214.268066 0.000000 0.000000 0.000000 1.000000 1.000000 1.000000 1.000000
826.914795 0.000000 1026.684448 0.000000 0.000000 0.000000 1.000000 1.000000 1.000000 1.000000
798.677490 0.000000 894.102966 0.000000 0.000000 0.000000 1.000000 1.000000 1.000000 1.000000
954.729614 0.000000 854.028992 0.000000 0.000000 0.000000 1.000000 1.000000 1.000000 1.000000
1107.437256 0.000000 795.645752 0.000000 0.000000 0.000000 1.000000 1.000000 1.000000 1.000000
1259.708374 0.000000 816.514648 0.000000 0.000000 0.000000 1.000000 1.000000 1.000000 1.000000
1363.996582 0.000000 906.217285 0.000000 0.000000 0.000000 1.000000 1.000000 1.000000 1.000000
1501.269653 0.000000 878.521423 0.000000 0.000000 0.000000 1.000000 1.000000 1.000000 1.000000
1434.684082 0.000000 738.236328 0.000000 0.000000 0.000000 1.000000 1.000000 1.000000 1.000000
1640.828247 0.000000 883.805664 0.000000 0.000000 0.000000 1.000000 1.000000 1.000000 1.000000
1607.951538 0.000000 722.533752 0.000000 0.000000 0.000000 1.000000 1.000000 1.000000 1.000000
1728.416870 0.000000 740.290100 0.000000 0.000000 0.000000 1.000000 1.000000 1.000000 1.000000
1856.219727 0.000000 737.950439 0.000000 0.000000 0.000000 1.000000 1.000000 1.000000 1.000000
1861.004150 0.000000 867.249390 0.000000 0.000000 0.000000 1.000000 1.000000 1.000000 1.000000
1782.756592 0.000000 1006.624084 0.000000 0.000000 0.000000 1.000000 1.000000 1.000000 1.000000
1865.663818 0.000000 1132.483154 0.000000 0.000000 0.000000 1.000000 1.000000 1.000000 1.000000
1652.708740 0.000000 1129.318604 0.000000 0.000000 0.000000 1.000000 1.000000 1.000000 1.000000
1587.499390 0.000000 991.375610 0.000000 0.000000 0.000000 1.000000 1.000000 1.000000 1.000000
1446.809814 0.000000 1105.507568 0.000000 0.000000 0.000000 1.000000 1.000000 1.000000 1.000000
1276.226196 0.000000 1148.551880 0.000000 0.000000 0.000000 1.000000 1.000000 1.000000 1.000000
1204.826050 0.000000 1012.249023 0.000000 0.000000 0.000000 1.000000 1.000000 1.000000 1.000000
1422.083740 0.000000 1272.041626 0.000000 0.000000 0.000000 1.000000 1.000000 1.000000 1.000000
1596.864258 0.000000 1272.841919 0.000000 0.000000 0.000000 1.000000 1.000000 1.000000 1.000000
1760.587158 0.000000 1292.270264 0.000000 0.000000 0.000000 1.000000 1.000000 1.000000 1.000000
2004.554932 0.000000 1223.871094 0.000000 0.000000 0.000000 1.000000 1.000000 1.000000 1.000000
2061.267090 0.000000 1055.074585 0.000000 0.000000 0.000000 1.000000 1.000000 1.000000 1.000000
2004.465942 0.000000 913.939148 0.000000 0.000000 0.000000 1.000000 1.000000 1.000000 1.000000
2164.168701 0.000000 908.516296 0.000000 0.000000 0.000000 1.000000 1.000000 1.000000 1.000000
2235.964844 0.000000 1045.462402 0.000000 0.000000 0.000000 1.000000 1.000000 1.000000 1.000000
2217.305176 0.000000 1189.205444 0.000000 0.000000 0.000000 1.000000 1.000000 1.000000 1.000000
2410.172119 0.000000 1138.997437 0.000000 0.000000 0.000000 1.000000 1.000000 1.000000 1.000000
2419.612549 0.000000 981.294128 0.000000 0.000000 0.000000 1.000000 1.000000 1.000000 1.000000
2553.179443 0.000000 1036.325317 0.000000 0.000000 0.000000 1.000000 1.000000 1.000000 1.000000
2546.480469 0.000000 1225.257813 0.000000 0.000000 0.000000 1.000000 1.000000 1.000000 1.000000
2408.085205 0.000000 1271.820435 0.000000 0.000000 0.000000 1.000000 1.000000 1.000000 1.000000
2540.679443 0.000000 823.238525 0.000000 0.000000 0.000000 1.000000 1.000000 1.000000 1.000000
2678.023926 0.000000 874.787048 0.000000 0.000000 0.000000 1.000000 1.000000 1.000000 1.000000
2391.385254 0.000000 844.261108 0.000000 0.000000 0.000000 1.000000 1.000000 1.000000 1.000000
2251.828369 0.000000 698.391357 0.000000 0.000000 0.000000 1.000000 1.000000 1.000000 1.000000
2067.361328 0.000000 725.019775 0.000000 0.000000 0.000000 1.000000 1.000000 1.000000 1.000000
1630.394165 0.000000 598.197449 0.000000 0.000000 0.000000 1.000000 1.000000 1.000000 1.000000
1329.226929 0.000000 540.018555 0.000000 0.000000 0.000000 1.000000 1.000000 1.000000 1.000000
361.192169 0.000000 1189.768066 0.000000 0.000000 0.000000 1.000000 1.000000 1.000000 1.000000
1028.890747 0.000000 1041.277344 0.000000 0.000000 0.000000 1.000000 1.000000 1.000000 1.000000
1230.380615 0.000000 1308.620361 0.000000 0.000000 0.000000 1.000000 1.000000 1.000000 1.000000
1041.866211 0.000000 1299.805176 0.000000 0.000000 0.000000 1.000000 1.000000 1.000000 1.000000
820.289063 0.000000 1334.652954 0.000000 0.000000 0.000000 1.000000 1.000000 1.000000 1.000000
3679.205811 0.000000 360.799805 0.000000 0.000000 0.000000 1.000000 1.000000 1.000000 1.000000
3503.588135 0.000000 651.125366 0.000000 0.000000 0.000000 1.000000 1.000000 1.000000 1.000000
3720.477295 0.000000 802.255188 0.000000 0.000000 0.000000 1.000000 1.000000 1.000000 1.000000
3963.287109 0.000000 844.712402 0.000000 0.000000 0.000000 1.000000 1.000000 1.000000 1.000000
4058.458252 0.000000 988.236450 0.000000 0.000000 0.000000 1.000000 1.000000 1.000000 1.000000
3914.185547 0.000000 1076.473877 0.000000 0.000000 0.000000 1.000000 1.000000 1.000000 1.000000
3678.259521 0.000000 1068.175903 0.000000 0.000000 0.000000 1.000000 1.000000 1.000000 1.000000
3596.396729 0.000000 1196.903931 0.000000 0.000000 0.000000 1.000000 1.000000 1.000000 1.000000
3437.357422 0.000000 1361.798462 0.000000 0.000000 0.000000 1.000000 1.000000 1.000000 1.000000
3482.408691 0.000000 1232.785767 0.000000 0.000000 0.000000 1.000000 1.000000 1.000000 1.000000
3335.603027 0.000000 1464.437988 0.000000 0.000000 0.000000 1.000000 1.000000 1.000000 1.000000
3268.371094 0.000000 1609.942383 0.000000 0.000000 0.000000 1.000000 1.000000 1.000000 1.000000
3207.986328 0.000000 1404.382813 0.000000 0.000000 0.000000 1.000000 1.000000 1.000000 1.000000
3206.677734 0.000000 1247.416260 0.000000 0.000000 0.000000 1.000000 1.000000 1.000000 1.000000
3301.507080 0.000000 1106.648682 0.000000 0.000000 0.000000 1.000000 1.000000 1.000000 1.000000
3453.346191 0.000000 1049.539551 0.000000 0.000000 0.000000 1.000000 1.000000 1.000000 1.000000
3329.311768 0.000000 975.939697 0.000000 0.000000 0.000000 1.000000 1.000000 1.000000 1.000000
3508.886963 0.000000 858.425293 0.000000 0.000000 0.000000 1.000000 1.000000 1.000000 1.000000
3638.809570 0.000000 911.479492 0.000000 0.000000 0.000000 1.000000 1.000000 1.000000 1.000000
3852.405518 0.000000 935.974121 0.000000 0.000000 0.000000 1.000000 1.000000 1.000000 1.000000
4054.970215 0.000000 1244.143311 0.000000 0.000000 0.000000 1.000000 1.000000 1.000000 1.000000
4185.641113 0.000000 1218.312012 0.000000 0.000000 0.000000 1.000000 1.000000 1.000000 1.000000
4313.806152 0.000000 1231.530029 0.000000 0.000000 0.000000 1.000000 1.000000 1.000000 1.000000
4416.068848 0.000000 1279.038330 0.000000 0.000000 0.000000 1.000000 1.000000 1.000000 1.000000
4312.270508 0.000000 1349.156616 0.000000 0.000000 0.000000 1.000000 1.000000 1.000000 1.000000
4338.015625 0.000000 1457.491943 0.000000 0.000000 0.000000 1.000000 1.000000 1.000000 1.000000
4220.597656 0.000000 1473.807861 0.000000 0.000000 0.000000 1.000000 1.000000 1.000000 1.000000
4193.761230 0.000000 1600.516846 0.000000 0.000000 0.000000 1.000000 1.000000 1.000000 1.000000
4122.025879 0.000000 1698.371338 0.000000 0.000000 0.000000 1.000000 1.000000 1.000000 1.000000
3978.908691 0.000000 1665.846313 0.000000 0.000000 0.000000 1.000000 1.000000 1.000000 1.000000
3868.049072 0.000000 1722.959961 0.000000 0.000000 0.000000 1.000000 1.000000 1.000000 1.000000
3998.339111 0.000000 1910.430786 0.000000 0.000000 0.000000 1.000000 1.000000 1.000000 1.000000
3904.549316 0.000000 1998.462280 0.000000 0.000000 0.000000 1.000000 1.000000 1.000000 1.000000
3812.053711 0.000000 1906.933838 0.000000 0.000000 0.000000 1.000000 1.000000 1.000000 1.000000
3871.449219 0.000000 2108.690186 0.000000 0.000000 0.000000 1.000000 1.000000 1.000000 1.000000
3785.446533 0.000000 2168.079834 0.000000 0.000000 0.000000 1.000000 1.000000 1.000000 1.000000
3677.530273 0.000000 2219.036621 0.000000 0.000000 0.000000 1.000000 1.000000 1.000000 1.000000
3790.701660 0.000000 2293.137207 0.000000 0.000000 0.000000 1.000000 1.000000 1.000000 1.000000
3877.816650 0.000000 2231.227783 0.000000 0.000000 0.000000 1.000000 1.000000 1.000000 1.000000
3890.955811 0.000000 2356.825439 0.000000 0.000000 0.000000 1.000000 1.000000 1.000000 1.000000
3664.760742 0.000000 2329.480225 0.000000 0.000000 0.000000 1.000000 1.000000 1.000000 1.000000
3743.066162 0.000000 2402.110596 0.000000 0.000000 0.000000 1.000000 1.000000 1.000000 1.000000
3862.212646 0.000000 2464.725342 0.000000 0.000000 0.000000 1.000000 1.000000 1.000000 1.000000
3953.653076 0.000000 2547.467041 0.000000 0.000000 0.000000 1.000000 1.000000 1.000000 1.000000
4085.557861 0.000000 2539.659180 0.000000 0.000000 0.000000 1.000000 1.000000 1.000000 1.000000
4214.348633 0.000000 2523.829346 0.000000 0.000000 0.000000 1.000000 1.000000 1.000000 1.000000
4145.022461 0.000000 2417.765625 0.000000 0.000000 0.000000 1.000000 1.000000 1.000000 1.000000
4334.279297 0.000000 2529.408203 0.000000 0.000000 0.000000 1.000000 1.000000 1.000000 1.000000
4301.843262 0.000000 2340.394287 0.000000 0.000000 0.000000 1.000000 1.000000 1.000000 1.000000
4413.939453 0.000000 2382.917236 0.000000 0.000000 0.000000 1.000000 1.000000 1.000000 1.000000
4455.776855 0.000000 2535.886230 0.000000 0.000000 0.000000 1.000000 1.000000 1.000000 1.000000
4526.905273 0.000000 2450.498291 0.000000 0.000000 0.000000 1.000000 1.000000 1.000000 1.000000
4629.044922 0.000000 2528.283203 0.000000 0.000000 0.000000 1.000000 1.000000 1.000000 1.000000
4692.154785 0.000000 2357.858154 0.000000 0.000000 0.000000 1.000000 1.000000 1.000000 1.000000
4808.977051 0.000000 2412.467529 0.000000 0.000000 0.000000 1.000000 1.000000 1.000000 1.000000
4945.751953 0.000000 2372.573242 0.000000 0.000000 0.000000 1.000000 1.000000 1.000000 1.000000
4880.010254 0.000000 2482.960693 0.000000 0.000000 0.000000 1.000000 1.000000 1.000000 1.000000
4038.949219 0.000000 2022.802856 0.000000 0.000000 0.000000 1.000000 1.000000 1.000000 1.000000
3526.383789 0.000000 2502.298828 0.000000 0.000000 0.000000 1.000000 1.000000 1.000000 1.000000
3431.822754 0.000000 2647.604004 0.000000 0.000000 0.000000 1.000000 1.000000 1.000000 1.000000
3396.767334 0.000000 2480.947754 0.000000 0.000000 0.000000 1.000000 1.000000 1.000000 1.000000
3634.707275 0.000000 2571.221924 0.000000 0.000000 0.000000 1.000000 1.000000 1.000000 1.000000
4541.678223 0.000000 1447.007080 0.000000 0.000000 0.000000 1.000000 1.000000 1.000000 1.000000
4627.751953 0.000000 1316.716064 0.000000 0.000000 0.000000 1.000000 1.000000 1.000000 1.000000
4766.364258 0.000000 1410.804932 0.000000 0.000000 0.000000 1.000000 1.000000 1.000000 1.000000
4781.228027 0.000000 1264.854004 0.000000 0.000000 0.000000 1.000000 1.000000 1.000000 1.000000
4929.220703 0.000000 1442.998901 0.000000 0.000000 0.000000 1.000000 1.000000 1.000000 1.000000
5243.152344 0.000000 2691.680664 0.000000 0.000000 0.000000 1.000000 1.000000 1.000000 1.000000
5652.430176 0.000000 2568.388916 0.000000 0.000000 0.000000 1.000000 1.000000 1.000000 1.000000
5687.441406 0.000000 2352.109619 0.000000 0.000000 0.000000 1.000000 1.000000 1.000000 1.000000
5818.647461 0.000000 2330.028076 0.000000 0.000000 0.000000 1.000000 1.000000 1.000000 1.000000
5967.239258 0.000000 2346.608154 0.000000 0.000000 0.000000 1.000000 1.000000 1.000000 1.000000
6123.452148 0.000000 2370.338379 0.000000 0.000000 0.000000 1.000000 1.000000 1.000000 1.000000
6282.541504 0.000000 2322.672607 0.000000 0.000000 0.000000 1.000000 1.000000 1.000000 1.000000
"}
object={
	name="amb_3D_field_emitter"
	clamp_to_water_level=no
	render_under_water=no
	generated_content=no
	layer="building_layer"
	entity="map_ambient_3D_field"
	count=48
	transform="4511.541504 0.000000 332.670959 0.000000 0.000000 0.000000 1.000000 1.000000 1.000000 1.000000
555.371521 0.000000 384.889832 0.000000 0.000000 0.000000 1.000000 1.000000 1.000000 1.000000
620.294556 0.000000 459.228546 0.000000 0.000000 0.000000 1.000000 1.000000 1.000000 1.000000
707.891113 0.000000 491.818665 0.000000 0.000000 0.000000 1.000000 1.000000 1.000000 1.000000
821.582825 0.000000 519.964783 0.000000 0.000000 0.000000 1.000000 1.000000 1.000000 1.000000
839.000916 0.000000 610.766724 0.000000 0.000000 0.000000 1.000000 1.000000 1.000000 1.000000
284.667816 0.000000 626.473511 0.000000 0.000000 0.000000 1.000000 1.000000 1.000000 1.000000
183.846466 0.000000 637.489258 0.000000 0.000000 0.000000 1.000000 1.000000 1.000000 1.000000
1454.071899 0.000000 114.927322 0.000000 0.000000 0.000000 1.000000 1.000000 1.000000 1.000000
1503.349121 0.000000 60.894432 0.000000 0.000000 0.000000 1.000000 1.000000 1.000000 1.000000
2864.032227 0.000000 610.562012 0.000000 0.000000 0.000000 1.000000 1.000000 1.000000 1.000000
2908.675293 0.000000 716.360840 0.000000 0.000000 0.000000 1.000000 1.000000 1.000000 1.000000
2740.524170 0.000000 754.829529 0.000000 0.000000 0.000000 1.000000 1.000000 1.000000 1.000000
2747.670898 0.000000 911.457031 0.000000 0.000000 0.000000 1.000000 1.000000 1.000000 1.000000
344.920685 0.000000 841.708191 0.000000 0.000000 0.000000 1.000000 1.000000 1.000000 1.000000
1000.363342 0.000000 1135.358643 0.000000 0.000000 0.000000 1.000000 1.000000 1.000000 1.000000
1685.598633 0.000000 420.353119 0.000000 0.000000 0.000000 1.000000 1.000000 1.000000 1.000000
1797.198120 0.000000 440.975586 0.000000 0.000000 0.000000 1.000000 1.000000 1.000000 1.000000
1925.372070 0.000000 406.186401 0.000000 0.000000 0.000000 1.000000 1.000000 1.000000 1.000000
5181.025391 0.000000 405.437073 0.000000 0.000000 0.000000 1.000000 1.000000 1.000000 1.000000
5203.582031 0.000000 474.159729 0.000000 0.000000 0.000000 1.000000 1.000000 1.000000 1.000000
5215.900391 0.000000 1340.608887 0.000000 0.000000 0.000000 1.000000 1.000000 1.000000 1.000000
5113.941406 0.000000 1395.676636 0.000000 0.000000 0.000000 1.000000 1.000000 1.000000 1.000000
5026.640137 0.000000 1440.957886 0.000000 0.000000 0.000000 1.000000 1.000000 1.000000 1.000000
5441.122559 0.000000 1352.320190 0.000000 0.000000 0.000000 1.000000 1.000000 1.000000 1.000000
5590.421387 0.000000 1371.519897 0.000000 0.000000 0.000000 1.000000 1.000000 1.000000 1.000000
5693.367188 0.000000 1316.624268 0.000000 0.000000 0.000000 1.000000 1.000000 1.000000 1.000000
5975.291504 0.000000 1223.118530 0.000000 0.000000 0.000000 1.000000 1.000000 1.000000 1.000000
6104.145020 0.000000 1022.524231 0.000000 0.000000 0.000000 1.000000 1.000000 1.000000 1.000000
5857.898438 0.000000 1145.188232 0.000000 0.000000 0.000000 1.000000 1.000000 1.000000 1.000000
5548.368652 0.000000 1177.459961 0.000000 0.000000 0.000000 1.000000 1.000000 1.000000 1.000000
5486.266113 0.000000 1083.045288 0.000000 0.000000 0.000000 1.000000 1.000000 1.000000 1.000000
4846.111328 0.000000 1634.124512 0.000000 0.000000 0.000000 1.000000 1.000000 1.000000 1.000000
4743.778809 0.000000 1557.194214 0.000000 0.000000 0.000000 1.000000 1.000000 1.000000 1.000000
4875.460449 0.000000 3271.595947 0.000000 0.000000 0.000000 1.000000 1.000000 1.000000 1.000000
4736.946289 0.000000 3230.075439 0.000000 0.000000 0.000000 1.000000 1.000000 1.000000 1.000000
4593.687500 0.000000 3249.758789 0.000000 0.000000 0.000000 1.000000 1.000000 1.000000 1.000000
4648.208496 0.000000 3155.950195 0.000000 0.000000 0.000000 1.000000 1.000000 1.000000 1.000000
2126.335938 0.000000 2288.708252 0.000000 0.000000 0.000000 1.000000 1.000000 1.000000 1.000000
2190.310547 0.000000 3011.238281 0.000000 0.000000 0.000000 1.000000 1.000000 1.000000 1.000000
2490.017578 0.000000 2777.440186 0.000000 0.000000 0.000000 1.000000 1.000000 1.000000 1.000000
2294.654053 0.000000 2803.386475 0.000000 0.000000 0.000000 1.000000 1.000000 1.000000 1.000000
3422.427246 0.000000 2348.664307 0.000000 0.000000 0.000000 1.000000 1.000000 1.000000 1.000000
3546.156738 0.000000 1960.086792 0.000000 0.000000 0.000000 1.000000 1.000000 1.000000 1.000000
3490.439697 0.000000 1533.436401 0.000000 0.000000 0.000000 1.000000 1.000000 1.000000 1.000000
3364.883301 0.000000 1557.092285 0.000000 0.000000 0.000000 1.000000 1.000000 1.000000 1.000000
3542.821533 0.000000 1408.100098 0.000000 0.000000 0.000000 1.000000 1.000000 1.000000 1.000000
3312.264893 0.000000 1720.607300 0.000000 0.000000 0.000000 1.000000 1.000000 1.000000 1.000000
"}
object={
	name="amb_3D_forest_emitter"
	clamp_to_water_level=no
	render_under_water=no
	generated_content=no
	layer="building_layer"
	entity="map_ambient_3D_forest"
	count=128
	transform="4465.613281 0.000000 264.056702 0.000000 0.000000 0.000000 1.000000 1.000000 1.000000 1.000000
3237.156494 0.000000 3270.725342 0.000000 0.000000 0.000000 1.000000 1.000000 1.000000 1.000000
3330.029541 0.000000 3195.786621 0.000000 0.000000 0.000000 1.000000 1.000000 1.000000 1.000000
3305.135498 0.000000 3083.982910 0.000000 0.000000 0.000000 1.000000 1.000000 1.000000 1.000000
3420.986816 0.000000 3124.976563 0.000000 0.000000 0.000000 1.000000 1.000000 1.000000 1.000000
3469.896240 0.000000 3279.680176 0.000000 0.000000 0.000000 1.000000 1.000000 1.000000 1.000000
3354.886963 0.000000 3358.774414 0.000000 0.000000 0.000000 1.000000 1.000000 1.000000 1.000000
3500.498535 0.000000 3395.859863 0.000000 0.000000 0.000000 1.000000 1.000000 1.000000 1.000000
3603.469727 0.000000 3324.528809 0.000000 0.000000 0.000000 1.000000 1.000000 1.000000 1.000000
3573.844727 0.000000 3216.953125 0.000000 0.000000 0.000000 1.000000 1.000000 1.000000 1.000000
3566.582031 0.000000 3103.810303 0.000000 0.000000 0.000000 1.000000 1.000000 1.000000 1.000000
3468.476318 0.000000 3008.841309 0.000000 0.000000 0.000000 1.000000 1.000000 1.000000 1.000000
3598.608154 0.000000 2989.411865 0.000000 0.000000 0.000000 1.000000 1.000000 1.000000 1.000000
3703.852539 0.000000 3092.577881 0.000000 0.000000 0.000000 1.000000 1.000000 1.000000 1.000000
3685.104248 0.000000 3206.468018 0.000000 0.000000 0.000000 1.000000 1.000000 1.000000 1.000000
3644.586670 0.000000 3452.958496 0.000000 0.000000 0.000000 1.000000 1.000000 1.000000 1.000000
3752.185059 0.000000 3017.241455 0.000000 0.000000 0.000000 1.000000 1.000000 1.000000 1.000000
3285.072998 0.000000 2868.627197 0.000000 0.000000 0.000000 1.000000 1.000000 1.000000 1.000000
3271.401855 0.000000 2770.963379 0.000000 0.000000 0.000000 1.000000 1.000000 1.000000 1.000000
3403.000000 0.000000 2822.809570 0.000000 0.000000 0.000000 1.000000 1.000000 1.000000 1.000000
3511.162598 0.000000 2909.354492 0.000000 0.000000 0.000000 1.000000 1.000000 1.000000 1.000000
3640.752686 0.000000 2905.213623 0.000000 0.000000 0.000000 1.000000 1.000000 1.000000 1.000000
3845.216553 0.000000 2949.382813 0.000000 0.000000 0.000000 1.000000 1.000000 1.000000 1.000000
2488.381592 0.000000 3030.838867 0.000000 0.000000 0.000000 1.000000 1.000000 1.000000 1.000000
2163.971436 0.000000 3968.852051 0.000000 0.000000 0.000000 1.000000 1.000000 1.000000 1.000000
2379.910156 0.000000 2928.208740 0.000000 0.000000 0.000000 1.000000 1.000000 1.000000 1.000000
2271.162598 0.000000 2974.963379 0.000000 0.000000 0.000000 1.000000 1.000000 1.000000 1.000000
2176.670166 0.000000 3068.534912 0.000000 0.000000 0.000000 1.000000 1.000000 1.000000 1.000000
2118.277100 0.000000 2944.231689 0.000000 0.000000 0.000000 1.000000 1.000000 1.000000 1.000000
2213.923828 0.000000 2886.357422 0.000000 0.000000 0.000000 1.000000 1.000000 1.000000 1.000000
2321.752686 0.000000 2845.884277 0.000000 0.000000 0.000000 1.000000 1.000000 1.000000 1.000000
2209.639160 0.000000 2783.914795 0.000000 0.000000 0.000000 1.000000 1.000000 1.000000 1.000000
2130.893066 0.000000 2411.173096 0.000000 0.000000 0.000000 1.000000 1.000000 1.000000 1.000000
2141.578125 0.000000 2534.567871 0.000000 0.000000 0.000000 1.000000 1.000000 1.000000 1.000000
2118.591064 0.000000 2745.480957 0.000000 0.000000 0.000000 1.000000 1.000000 1.000000 1.000000
2317.616455 0.000000 2718.695313 0.000000 0.000000 0.000000 1.000000 1.000000 1.000000 1.000000
2447.116211 0.000000 2797.391113 0.000000 0.000000 0.000000 1.000000 1.000000 1.000000 1.000000
2550.287109 0.000000 2803.483154 0.000000 0.000000 0.000000 1.000000 1.000000 1.000000 1.000000
2595.668945 0.000000 2715.752686 0.000000 0.000000 0.000000 1.000000 1.000000 1.000000 1.000000
2703.015869 0.000000 2686.990967 0.000000 0.000000 0.000000 1.000000 1.000000 1.000000 1.000000
2645.970703 0.000000 2627.317139 0.000000 0.000000 0.000000 1.000000 1.000000 1.000000 1.000000
871.053833 0.000000 3264.741943 0.000000 0.000000 0.000000 1.000000 1.000000 1.000000 1.000000
762.012329 0.000000 3337.214111 0.000000 0.000000 0.000000 1.000000 1.000000 1.000000 1.000000
755.818115 0.000000 3237.537598 0.000000 0.000000 0.000000 1.000000 1.000000 1.000000 1.000000
265.859161 0.000000 3960.918457 0.000000 0.000000 0.000000 1.000000 1.000000 1.000000 1.000000
257.013885 0.000000 3858.121094 0.000000 0.000000 0.000000 1.000000 1.000000 1.000000 1.000000
352.222504 0.000000 3906.693604 0.000000 0.000000 0.000000 1.000000 1.000000 1.000000 1.000000
474.313416 0.000000 3932.980713 0.000000 0.000000 0.000000 1.000000 1.000000 1.000000 1.000000
4205.616211 0.000000 3479.211670 0.000000 0.000000 0.000000 1.000000 1.000000 1.000000 1.000000
4069.927246 0.000000 3473.001465 0.000000 0.000000 0.000000 1.000000 1.000000 1.000000 1.000000
4151.553711 0.000000 3380.407471 0.000000 0.000000 0.000000 1.000000 1.000000 1.000000 1.000000
4265.598633 0.000000 3379.629639 0.000000 0.000000 0.000000 1.000000 1.000000 1.000000 1.000000
4203.367188 0.000000 3284.656494 0.000000 0.000000 0.000000 1.000000 1.000000 1.000000 1.000000
4064.623535 0.000000 3298.828125 0.000000 0.000000 0.000000 1.000000 1.000000 1.000000 1.000000
4010.941406 0.000000 3393.131836 0.000000 0.000000 0.000000 1.000000 1.000000 1.000000 1.000000
3943.742432 0.000000 3307.346191 0.000000 0.000000 0.000000 1.000000 1.000000 1.000000 1.000000
3897.492188 0.000000 3401.431152 0.000000 0.000000 0.000000 1.000000 1.000000 1.000000 1.000000
4000.584229 0.000000 3211.604492 0.000000 0.000000 0.000000 1.000000 1.000000 1.000000 1.000000
4132.075684 0.000000 3224.305420 0.000000 0.000000 0.000000 1.000000 1.000000 1.000000 1.000000
4121.619629 0.000000 3136.066650 0.000000 0.000000 0.000000 1.000000 1.000000 1.000000 1.000000
4235.410645 0.000000 3173.737305 0.000000 0.000000 0.000000 1.000000 1.000000 1.000000 1.000000
4314.448242 0.000000 3237.331055 0.000000 0.000000 0.000000 1.000000 1.000000 1.000000 1.000000
4373.734375 0.000000 3326.867432 0.000000 0.000000 0.000000 1.000000 1.000000 1.000000 1.000000
4427.000000 0.000000 3241.768311 0.000000 0.000000 0.000000 1.000000 1.000000 1.000000 1.000000
4374.308105 0.000000 3159.426025 0.000000 0.000000 0.000000 1.000000 1.000000 1.000000 1.000000
4300.322754 0.000000 3097.500977 0.000000 0.000000 0.000000 1.000000 1.000000 1.000000 1.000000
4192.700195 0.000000 3077.153564 0.000000 0.000000 0.000000 1.000000 1.000000 1.000000 1.000000
4167.008301 0.000000 2984.891846 0.000000 0.000000 0.000000 1.000000 1.000000 1.000000 1.000000
4307.230469 0.000000 3009.231934 0.000000 0.000000 0.000000 1.000000 1.000000 1.000000 1.000000
4508.733887 0.000000 3167.190674 0.000000 0.000000 0.000000 1.000000 1.000000 1.000000 1.000000
4456.309570 0.000000 3088.516846 0.000000 0.000000 0.000000 1.000000 1.000000 1.000000 1.000000
4558.294922 0.000000 3082.431885 0.000000 0.000000 0.000000 1.000000 1.000000 1.000000 1.000000
4685.808594 0.000000 3094.821045 0.000000 0.000000 0.000000 1.000000 1.000000 1.000000 1.000000
4643.958008 0.000000 3013.447021 0.000000 0.000000 0.000000 1.000000 1.000000 1.000000 1.000000
4697.014648 0.000000 2939.291016 0.000000 0.000000 0.000000 1.000000 1.000000 1.000000 1.000000
4827.604980 0.000000 3141.630859 0.000000 0.000000 0.000000 1.000000 1.000000 1.000000 1.000000
4884.536133 0.000000 3045.077148 0.000000 0.000000 0.000000 1.000000 1.000000 1.000000 1.000000
4959.765625 0.000000 3132.046143 0.000000 0.000000 0.000000 1.000000 1.000000 1.000000 1.000000
4911.027832 0.000000 3230.986084 0.000000 0.000000 0.000000 1.000000 1.000000 1.000000 1.000000
5034.173340 0.000000 3254.073486 0.000000 0.000000 0.000000 1.000000 1.000000 1.000000 1.000000
4949.715820 0.000000 3369.740723 0.000000 0.000000 0.000000 1.000000 1.000000 1.000000 1.000000
4829.674805 0.000000 3375.637695 0.000000 0.000000 0.000000 1.000000 1.000000 1.000000 1.000000
5077.830566 0.000000 3391.814209 0.000000 0.000000 0.000000 1.000000 1.000000 1.000000 1.000000
5140.782715 0.000000 3305.452148 0.000000 0.000000 0.000000 1.000000 1.000000 1.000000 1.000000
5062.306152 0.000000 3154.882813 0.000000 0.000000 0.000000 1.000000 1.000000 1.000000 1.000000
5023.357422 0.000000 3044.815186 0.000000 0.000000 0.000000 1.000000 1.000000 1.000000 1.000000
4943.919434 0.000000 2982.760254 0.000000 0.000000 0.000000 1.000000 1.000000 1.000000 1.000000
5198.403809 0.000000 3422.322998 0.000000 0.000000 0.000000 1.000000 1.000000 1.000000 1.000000
5276.771484 0.000000 3347.853027 0.000000 0.000000 0.000000 1.000000 1.000000 1.000000 1.000000
5416.619141 0.000000 3379.663818 0.000000 0.000000 0.000000 1.000000 1.000000 1.000000 1.000000
5399.052734 0.000000 3283.039063 0.000000 0.000000 0.000000 1.000000 1.000000 1.000000 1.000000
5316.086426 0.000000 3226.856201 0.000000 0.000000 0.000000 1.000000 1.000000 1.000000 1.000000
5503.596191 0.000000 3287.959229 0.000000 0.000000 0.000000 1.000000 1.000000 1.000000 1.000000
5595.099609 0.000000 3382.833984 0.000000 0.000000 0.000000 1.000000 1.000000 1.000000 1.000000
5642.319824 0.000000 3264.487549 0.000000 0.000000 0.000000 1.000000 1.000000 1.000000 1.000000
5975.525879 0.000000 988.304688 0.000000 0.000000 0.000000 1.000000 1.000000 1.000000 1.000000
6042.256348 0.000000 1080.209473 0.000000 0.000000 0.000000 1.000000 1.000000 1.000000 1.000000
5944.738770 0.000000 1127.776855 0.000000 0.000000 0.000000 1.000000 1.000000 1.000000 1.000000
6154.455566 0.000000 994.949707 0.000000 0.000000 0.000000 1.000000 1.000000 1.000000 1.000000
6132.687988 0.000000 1122.053467 0.000000 0.000000 0.000000 1.000000 1.000000 1.000000 1.000000
6085.085449 0.000000 1219.137451 0.000000 0.000000 0.000000 1.000000 1.000000 1.000000 1.000000
6080.235352 0.000000 1355.749268 0.000000 0.000000 0.000000 1.000000 1.000000 1.000000 1.000000
6138.602539 0.000000 1488.179321 0.000000 0.000000 0.000000 1.000000 1.000000 1.000000 1.000000
6032.462402 0.000000 1591.447021 0.000000 0.000000 0.000000 1.000000 1.000000 1.000000 1.000000
5989.692383 0.000000 1483.063599 0.000000 0.000000 0.000000 1.000000 1.000000 1.000000 1.000000
5940.833984 0.000000 1384.809814 0.000000 0.000000 0.000000 1.000000 1.000000 1.000000 1.000000
5898.365234 0.000000 1298.368896 0.000000 0.000000 0.000000 1.000000 1.000000 1.000000 1.000000
5812.244629 0.000000 1217.909424 0.000000 0.000000 0.000000 1.000000 1.000000 1.000000 1.000000
5763.913086 0.000000 1375.045898 0.000000 0.000000 0.000000 1.000000 1.000000 1.000000 1.000000
5846.874512 0.000000 1455.150757 0.000000 0.000000 0.000000 1.000000 1.000000 1.000000 1.000000
5627.851074 0.000000 1447.570801 0.000000 0.000000 0.000000 1.000000 1.000000 1.000000 1.000000
5503.006836 0.000000 1423.100342 0.000000 0.000000 0.000000 1.000000 1.000000 1.000000 1.000000
5368.280762 0.000000 1445.145874 0.000000 0.000000 0.000000 1.000000 1.000000 1.000000 1.000000
5242.286133 0.000000 1464.333984 0.000000 0.000000 0.000000 1.000000 1.000000 1.000000 1.000000
5173.899414 0.000000 1302.539917 0.000000 0.000000 0.000000 1.000000 1.000000 1.000000 1.000000
4995.190918 0.000000 1255.514404 0.000000 0.000000 0.000000 1.000000 1.000000 1.000000 1.000000
5084.895020 0.000000 1170.248169 0.000000 0.000000 0.000000 1.000000 1.000000 1.000000 1.000000
5073.861328 0.000000 504.893494 0.000000 0.000000 0.000000 1.000000 1.000000 1.000000 1.000000
5139.358398 0.000000 395.917358 0.000000 0.000000 0.000000 1.000000 1.000000 1.000000 1.000000
5363.185547 0.000000 1233.500732 0.000000 0.000000 0.000000 1.000000 1.000000 1.000000 1.000000
5473.520996 0.000000 1276.934448 0.000000 0.000000 0.000000 1.000000 1.000000 1.000000 1.000000
5474.597656 0.000000 1165.519287 0.000000 0.000000 0.000000 1.000000 1.000000 1.000000 1.000000
5399.600098 0.000000 1072.358032 0.000000 0.000000 0.000000 1.000000 1.000000 1.000000 1.000000
5370.952148 0.000000 937.359314 0.000000 0.000000 0.000000 1.000000 1.000000 1.000000 1.000000
5659.311035 0.000000 1289.302002 0.000000 0.000000 0.000000 1.000000 1.000000 1.000000 1.000000
5631.686523 0.000000 1204.968628 0.000000 0.000000 0.000000 1.000000 1.000000 1.000000 1.000000
4830.259766 0.000000 1579.048828 0.000000 0.000000 0.000000 1.000000 1.000000 1.000000 1.000000
5336.670410 0.000000 287.982178 0.000000 0.000000 0.000000 1.000000 1.000000 1.000000 1.000000
"}
object={
	name="amb_3D_mountain_emitter"
	clamp_to_water_level=no
	render_under_water=no
	generated_content=no
	layer="building_layer"
	entity="map_ambient_3D_mountain"
	count=126
	transform="4380.437500 0.000000 264.727325 0.000000 0.000000 0.000000 1.000000 1.000000 1.000000 1.000000
5359.426270 0.000000 979.758850 0.000000 0.000000 0.000000 1.000000 1.000000 1.000000 1.000000
5127.840332 0.000000 473.789032 0.000000 0.000000 0.000000 1.000000 1.000000 1.000000 1.000000
5875.739746 0.000000 1205.397705 0.000000 0.000000 0.000000 1.000000 1.000000 1.000000 1.000000
5838.810059 0.000000 1312.686279 0.000000 0.000000 0.000000 1.000000 1.000000 1.000000 1.000000
5901.653809 0.000000 1440.234131 0.000000 0.000000 0.000000 1.000000 1.000000 1.000000 1.000000
6235.565918 0.000000 1566.928833 0.000000 0.000000 0.000000 1.000000 1.000000 1.000000 1.000000
6275.790527 0.000000 1690.734375 0.000000 0.000000 0.000000 1.000000 1.000000 1.000000 1.000000
6320.479492 0.000000 1814.079346 0.000000 0.000000 0.000000 1.000000 1.000000 1.000000 1.000000
6141.103027 0.000000 1632.114136 0.000000 0.000000 0.000000 1.000000 1.000000 1.000000 1.000000
6055.256348 0.000000 1687.620361 0.000000 0.000000 0.000000 1.000000 1.000000 1.000000 1.000000
5906.651367 0.000000 1692.336182 0.000000 0.000000 0.000000 1.000000 1.000000 1.000000 1.000000
5833.931152 0.000000 1595.396118 0.000000 0.000000 0.000000 1.000000 1.000000 1.000000 1.000000
5679.124023 0.000000 2501.998047 0.000000 0.000000 0.000000 1.000000 1.000000 1.000000 1.000000
5291.779297 0.000000 2892.171143 0.000000 0.000000 0.000000 1.000000 1.000000 1.000000 1.000000
5225.865723 0.000000 2824.610352 0.000000 0.000000 0.000000 1.000000 1.000000 1.000000 1.000000
5186.929688 0.000000 2943.943359 0.000000 0.000000 0.000000 1.000000 1.000000 1.000000 1.000000
5152.089355 0.000000 2875.049805 0.000000 0.000000 0.000000 1.000000 1.000000 1.000000 1.000000
5150.196777 0.000000 2792.709717 0.000000 0.000000 0.000000 1.000000 1.000000 1.000000 1.000000
5284.459961 0.000000 2973.942627 0.000000 0.000000 0.000000 1.000000 1.000000 1.000000 1.000000
5204.371582 0.000000 3020.005127 0.000000 0.000000 0.000000 1.000000 1.000000 1.000000 1.000000
5186.304199 0.000000 3112.871338 0.000000 0.000000 0.000000 1.000000 1.000000 1.000000 1.000000
4933.905762 0.000000 2682.370361 0.000000 0.000000 0.000000 1.000000 1.000000 1.000000 1.000000
4322.174316 0.000000 2630.326660 0.000000 0.000000 0.000000 1.000000 1.000000 1.000000 1.000000
4554.386719 0.000000 1691.242676 0.000000 0.000000 0.000000 1.000000 1.000000 1.000000 1.000000
4468.665039 0.000000 1732.302734 0.000000 0.000000 0.000000 1.000000 1.000000 1.000000 1.000000
4360.503418 0.000000 1710.323364 0.000000 0.000000 0.000000 1.000000 1.000000 1.000000 1.000000
4281.641602 0.000000 1686.950684 0.000000 0.000000 0.000000 1.000000 1.000000 1.000000 1.000000
4343.383789 0.000000 1632.446167 0.000000 0.000000 0.000000 1.000000 1.000000 1.000000 1.000000
4451.760254 0.000000 1642.360596 0.000000 0.000000 0.000000 1.000000 1.000000 1.000000 1.000000
4576.489258 0.000000 1597.694092 0.000000 0.000000 0.000000 1.000000 1.000000 1.000000 1.000000
4576.032715 0.000000 1510.677368 0.000000 0.000000 0.000000 1.000000 1.000000 1.000000 1.000000
4475.586426 0.000000 1514.314209 0.000000 0.000000 0.000000 1.000000 1.000000 1.000000 1.000000
4463.183105 0.000000 1423.594849 0.000000 0.000000 0.000000 1.000000 1.000000 1.000000 1.000000
4457.498047 0.000000 1319.145996 0.000000 0.000000 0.000000 1.000000 1.000000 1.000000 1.000000
4241.617676 0.000000 1318.932617 0.000000 0.000000 0.000000 1.000000 1.000000 1.000000 1.000000
4194.432617 0.000000 1408.660645 0.000000 0.000000 0.000000 1.000000 1.000000 1.000000 1.000000
4166.797363 0.000000 1512.291260 0.000000 0.000000 0.000000 1.000000 1.000000 1.000000 1.000000
4108.703613 0.000000 1608.427734 0.000000 0.000000 0.000000 1.000000 1.000000 1.000000 1.000000
4100.214355 0.000000 1279.024170 0.000000 0.000000 0.000000 1.000000 1.000000 1.000000 1.000000
3624.027588 0.000000 1561.293945 0.000000 0.000000 0.000000 1.000000 1.000000 1.000000 1.000000
3542.254395 0.000000 1612.785278 0.000000 0.000000 0.000000 1.000000 1.000000 1.000000 1.000000
3486.928467 0.000000 1689.475342 0.000000 0.000000 0.000000 1.000000 1.000000 1.000000 1.000000
4071.004883 0.000000 1803.340332 0.000000 0.000000 0.000000 1.000000 1.000000 1.000000 1.000000
3983.068848 0.000000 1846.593018 0.000000 0.000000 0.000000 1.000000 1.000000 1.000000 1.000000
3890.497559 0.000000 1811.079834 0.000000 0.000000 0.000000 1.000000 1.000000 1.000000 1.000000
3774.610107 0.000000 1753.541382 0.000000 0.000000 0.000000 1.000000 1.000000 1.000000 1.000000
3670.126709 0.000000 1753.167969 0.000000 0.000000 0.000000 1.000000 1.000000 1.000000 1.000000
3576.554932 0.000000 1806.235718 0.000000 0.000000 0.000000 1.000000 1.000000 1.000000 1.000000
3059.811523 0.000000 1777.963501 0.000000 0.000000 0.000000 1.000000 1.000000 1.000000 1.000000
3033.563477 0.000000 1850.846802 0.000000 0.000000 0.000000 1.000000 1.000000 1.000000 1.000000
2981.233643 0.000000 1795.939209 0.000000 0.000000 0.000000 1.000000 1.000000 1.000000 1.000000
2948.900146 0.000000 1867.247803 0.000000 0.000000 0.000000 1.000000 1.000000 1.000000 1.000000
2994.173096 0.000000 1916.015625 0.000000 0.000000 0.000000 1.000000 1.000000 1.000000 1.000000
2766.076172 0.000000 1936.732666 0.000000 0.000000 0.000000 1.000000 1.000000 1.000000 1.000000
3685.791016 0.000000 658.795776 0.000000 0.000000 0.000000 1.000000 1.000000 1.000000 1.000000
3594.119873 0.000000 613.491089 0.000000 0.000000 0.000000 1.000000 1.000000 1.000000 1.000000
3482.226807 0.000000 588.429016 0.000000 0.000000 0.000000 1.000000 1.000000 1.000000 1.000000
3401.535400 0.000000 606.262268 0.000000 0.000000 0.000000 1.000000 1.000000 1.000000 1.000000
3383.480957 0.000000 700.363892 0.000000 0.000000 0.000000 1.000000 1.000000 1.000000 1.000000
3338.611816 0.000000 781.885498 0.000000 0.000000 0.000000 1.000000 1.000000 1.000000 1.000000
3305.081299 0.000000 882.832214 0.000000 0.000000 0.000000 1.000000 1.000000 1.000000 1.000000
3224.374756 0.000000 909.202393 0.000000 0.000000 0.000000 1.000000 1.000000 1.000000 1.000000
3223.012695 0.000000 993.609741 0.000000 0.000000 0.000000 1.000000 1.000000 1.000000 1.000000
3212.109131 0.000000 1100.913940 0.000000 0.000000 0.000000 1.000000 1.000000 1.000000 1.000000
3209.140625 0.000000 236.454102 0.000000 0.000000 0.000000 1.000000 1.000000 1.000000 1.000000
3297.914307 0.000000 341.800537 0.000000 0.000000 0.000000 1.000000 1.000000 1.000000 1.000000
3198.731445 0.000000 528.335449 0.000000 0.000000 0.000000 1.000000 1.000000 1.000000 1.000000
3056.910400 0.000000 556.065857 0.000000 0.000000 0.000000 1.000000 1.000000 1.000000 1.000000
3083.062500 0.000000 626.716125 0.000000 0.000000 0.000000 1.000000 1.000000 1.000000 1.000000
3187.918945 0.000000 599.786255 0.000000 0.000000 0.000000 1.000000 1.000000 1.000000 1.000000
3121.779053 0.000000 677.952759 0.000000 0.000000 0.000000 1.000000 1.000000 1.000000 1.000000
3045.315430 0.000000 740.986328 0.000000 0.000000 0.000000 1.000000 1.000000 1.000000 1.000000
3018.773926 0.000000 821.783691 0.000000 0.000000 0.000000 1.000000 1.000000 1.000000 1.000000
2991.819336 0.000000 894.155701 0.000000 0.000000 0.000000 1.000000 1.000000 1.000000 1.000000
2882.314697 0.000000 510.956299 0.000000 0.000000 0.000000 1.000000 1.000000 1.000000 1.000000
2915.252441 0.000000 650.379822 0.000000 0.000000 0.000000 1.000000 1.000000 1.000000 1.000000
2715.133057 0.000000 668.374268 0.000000 0.000000 0.000000 1.000000 1.000000 1.000000 1.000000
2424.435791 0.000000 502.471771 0.000000 0.000000 0.000000 1.000000 1.000000 1.000000 1.000000
2123.597168 0.000000 381.323975 0.000000 0.000000 0.000000 1.000000 1.000000 1.000000 1.000000
1855.827148 0.000000 334.276062 0.000000 0.000000 0.000000 1.000000 1.000000 1.000000 1.000000
2086.494629 0.000000 745.546448 0.000000 0.000000 0.000000 1.000000 1.000000 1.000000 1.000000
2007.025024 0.000000 817.333313 0.000000 0.000000 0.000000 1.000000 1.000000 1.000000 1.000000
2105.964844 0.000000 868.033508 0.000000 0.000000 0.000000 1.000000 1.000000 1.000000 1.000000
1558.005127 0.000000 685.838623 0.000000 0.000000 0.000000 1.000000 1.000000 1.000000 1.000000
1631.405273 0.000000 929.625977 0.000000 0.000000 0.000000 1.000000 1.000000 1.000000 1.000000
1187.380371 0.000000 789.887024 0.000000 0.000000 0.000000 1.000000 1.000000 1.000000 1.000000
1596.788086 0.000000 286.652100 0.000000 0.000000 0.000000 1.000000 1.000000 1.000000 1.000000
1217.124878 0.000000 334.980499 0.000000 0.000000 0.000000 1.000000 1.000000 1.000000 1.000000
1182.799316 0.000000 166.048904 0.000000 0.000000 0.000000 1.000000 1.000000 1.000000 1.000000
1178.606689 0.000000 255.361160 0.000000 0.000000 0.000000 1.000000 1.000000 1.000000 1.000000
817.162659 0.000000 368.510254 0.000000 0.000000 0.000000 1.000000 1.000000 1.000000 1.000000
742.689575 0.000000 323.175171 0.000000 0.000000 0.000000 1.000000 1.000000 1.000000 1.000000
802.253723 0.000000 449.003357 0.000000 0.000000 0.000000 1.000000 1.000000 1.000000 1.000000
640.816956 0.000000 187.521423 0.000000 0.000000 0.000000 1.000000 1.000000 1.000000 1.000000
588.467834 0.000000 251.148438 0.000000 0.000000 0.000000 1.000000 1.000000 1.000000 1.000000
424.171753 0.000000 301.985168 0.000000 0.000000 0.000000 1.000000 1.000000 1.000000 1.000000
382.602844 0.000000 366.835205 0.000000 0.000000 0.000000 1.000000 1.000000 1.000000 1.000000
340.703461 0.000000 799.541626 0.000000 0.000000 0.000000 1.000000 1.000000 1.000000 1.000000
320.021759 0.000000 1024.417236 0.000000 0.000000 0.000000 1.000000 1.000000 1.000000 1.000000
397.522644 0.000000 1097.967651 0.000000 0.000000 0.000000 1.000000 1.000000 1.000000 1.000000
458.696228 0.000000 1157.473389 0.000000 0.000000 0.000000 1.000000 1.000000 1.000000 1.000000
389.736115 0.000000 1197.993896 0.000000 0.000000 0.000000 1.000000 1.000000 1.000000 1.000000
523.353027 0.000000 1248.753906 0.000000 0.000000 0.000000 1.000000 1.000000 1.000000 1.000000
597.288086 0.000000 1308.531982 0.000000 0.000000 0.000000 1.000000 1.000000 1.000000 1.000000
658.641968 0.000000 1272.434326 0.000000 0.000000 0.000000 1.000000 1.000000 1.000000 1.000000
482.668579 0.000000 1339.244385 0.000000 0.000000 0.000000 1.000000 1.000000 1.000000 1.000000
2226.155518 0.000000 2244.879150 0.000000 0.000000 0.000000 1.000000 1.000000 1.000000 1.000000
2138.309570 0.000000 2002.740112 0.000000 0.000000 0.000000 1.000000 1.000000 1.000000 1.000000
1907.585449 0.000000 3883.840332 0.000000 0.000000 0.000000 1.000000 1.000000 1.000000 1.000000
2090.714600 0.000000 4003.281250 0.000000 0.000000 0.000000 1.000000 1.000000 1.000000 1.000000
3676.630371 0.000000 3589.971924 0.000000 0.000000 0.000000 1.000000 1.000000 1.000000 1.000000
3717.504395 0.000000 3501.866699 0.000000 0.000000 0.000000 1.000000 1.000000 1.000000 1.000000
3759.871582 0.000000 3424.413818 0.000000 0.000000 0.000000 1.000000 1.000000 1.000000 1.000000
3782.799072 0.000000 3340.660889 0.000000 0.000000 0.000000 1.000000 1.000000 1.000000 1.000000
3827.372559 0.000000 3274.503174 0.000000 0.000000 0.000000 1.000000 1.000000 1.000000 1.000000
3784.364746 0.000000 3108.181396 0.000000 0.000000 0.000000 1.000000 1.000000 1.000000 1.000000
3831.147217 0.000000 3036.723145 0.000000 0.000000 0.000000 1.000000 1.000000 1.000000 1.000000
3912.186523 0.000000 2892.826416 0.000000 0.000000 0.000000 1.000000 1.000000 1.000000 1.000000
4028.812500 0.000000 2973.016602 0.000000 0.000000 0.000000 1.000000 1.000000 1.000000 1.000000
3990.253662 0.000000 2870.399170 0.000000 0.000000 0.000000 1.000000 1.000000 1.000000 1.000000
392.385620 0.000000 3856.948730 0.000000 0.000000 0.000000 1.000000 1.000000 1.000000 1.000000
6339.558105 0.000000 1931.741821 0.000000 0.000000 0.000000 1.000000 1.000000 1.000000 1.000000
6345.138184 0.000000 2037.947021 0.000000 0.000000 0.000000 1.000000 1.000000 1.000000 1.000000
6364.083984 0.000000 2141.041748 0.000000 0.000000 0.000000 1.000000 1.000000 1.000000 1.000000
6240.816406 0.000000 2004.022339 0.000000 0.000000 0.000000 1.000000 1.000000 1.000000 1.000000
"}
object={
	name="amb_3D_ocean_emitter"
	clamp_to_water_level=yes
	render_under_water=no
	generated_content=no
	layer="building_layer"
	entity="map_ambient_3D_ocean"
	count=190
	transform="22.893209 0.000000 -1.179398 0.000000 0.000000 0.000000 1.000000 1.000000 1.000000 1.000000
280.199890 0.000000 7.701492 0.000000 0.000000 0.000000 1.000000 1.000000 1.000000 1.000000
0.365933 0.000000 236.069489 0.000000 0.000000 0.000000 1.000000 1.000000 1.000000 1.000000
99.860626 0.000000 351.190186 0.000000 0.000000 0.000000 1.000000 1.000000 1.000000 1.000000
0.544248 0.000000 473.197632 0.000000 0.000000 0.000000 1.000000 1.000000 1.000000 1.000000
85.152657 0.000000 662.790894 0.000000 0.000000 0.000000 1.000000 1.000000 1.000000 1.000000
0.544248 0.000000 834.552551 0.000000 0.000000 0.000000 1.000000 1.000000 1.000000 1.000000
115.530884 0.000000 1046.130127 0.000000 0.000000 0.000000 1.000000 1.000000 1.000000 1.000000
0.544248 0.000000 1193.799805 0.000000 0.000000 0.000000 1.000000 1.000000 1.000000 1.000000
0.544248 0.000000 1432.332153 0.000000 0.000000 0.000000 1.000000 1.000000 1.000000 1.000000
163.025696 0.000000 1580.074585 0.000000 0.000000 0.000000 1.000000 1.000000 1.000000 1.000000
0.544248 0.000000 1673.918945 0.000000 0.000000 0.000000 1.000000 1.000000 1.000000 1.000000
130.463104 0.000000 1784.845581 0.000000 0.000000 0.000000 1.000000 1.000000 1.000000 1.000000
0.544250 0.000000 1908.908203 0.000000 0.000000 0.000000 1.000000 1.000000 1.000000 1.000000
85.754822 0.000000 2073.423340 0.000000 0.000000 0.000000 1.000000 1.000000 1.000000 1.000000
0.544248 0.000000 2263.380371 0.000000 0.000000 0.000000 1.000000 1.000000 1.000000 1.000000
0.544248 0.000000 2508.555908 0.000000 0.000000 0.000000 1.000000 1.000000 1.000000 1.000000
0.544249 0.000000 2739.391113 0.000000 0.000000 0.000000 1.000000 1.000000 1.000000 1.000000
0.544248 0.000000 2970.134766 0.000000 0.000000 0.000000 1.000000 1.000000 1.000000 1.000000
0.270975 0.000000 3087.385254 0.000000 0.000000 0.000000 1.000000 1.000000 1.000000 1.000000
0.270972 0.000000 3200.847656 0.000000 0.000000 0.000000 1.000000 1.000000 1.000000 1.000000
0.270972 0.000000 3431.172852 0.000000 0.000000 0.000000 1.000000 1.000000 1.000000 1.000000
0.196632 0.000000 3678.721924 0.000000 0.000000 0.000000 1.000000 1.000000 1.000000 1.000000
0.196631 0.000000 3957.281006 0.000000 0.000000 0.000000 1.000000 1.000000 1.000000 1.000000
7.996634 0.000000 4090.304199 0.000000 0.000000 0.000000 1.000000 1.000000 1.000000 1.000000
183.499481 0.000000 3985.424805 0.000000 0.000000 0.000000 1.000000 1.000000 1.000000 1.000000
141.348892 0.000000 3841.783203 0.000000 0.000000 0.000000 1.000000 1.000000 1.000000 1.000000
140.955521 0.000000 3699.214355 0.000000 0.000000 0.000000 1.000000 1.000000 1.000000 1.000000
149.645142 0.000000 3533.668945 0.000000 0.000000 0.000000 1.000000 1.000000 1.000000 1.000000
156.664185 0.000000 3380.201904 0.000000 0.000000 0.000000 1.000000 1.000000 1.000000 1.000000
153.476196 0.000000 3225.679199 0.000000 0.000000 0.000000 1.000000 1.000000 1.000000 1.000000
164.556778 0.000000 3061.141113 0.000000 0.000000 0.000000 1.000000 1.000000 1.000000 1.000000
149.666107 0.000000 2917.910156 0.000000 0.000000 0.000000 1.000000 1.000000 1.000000 1.000000
339.404297 0.000000 4009.468262 0.000000 0.000000 0.000000 1.000000 1.000000 1.000000 1.000000
463.195679 0.000000 3767.299072 0.000000 0.000000 0.000000 1.000000 1.000000 1.000000 1.000000
331.248138 0.000000 3741.154541 0.000000 0.000000 0.000000 1.000000 1.000000 1.000000 1.000000
261.398224 0.000000 3593.827148 0.000000 0.000000 0.000000 1.000000 1.000000 1.000000 1.000000
408.543518 0.000000 3596.444824 0.000000 0.000000 0.000000 1.000000 1.000000 1.000000 1.000000
1935.589844 0.000000 4063.799316 0.000000 0.000000 0.000000 1.000000 1.000000 1.000000 1.000000
2139.281250 0.000000 4089.466553 0.000000 0.000000 0.000000 1.000000 1.000000 1.000000 1.000000
549.705200 0.000000 3438.843994 0.000000 0.000000 0.000000 1.000000 1.000000 1.000000 1.000000
294.208649 0.000000 3427.481689 0.000000 0.000000 0.000000 1.000000 1.000000 1.000000 1.000000
222.735016 0.000000 2757.345215 0.000000 0.000000 0.000000 1.000000 1.000000 1.000000 1.000000
269.549622 0.000000 2577.924072 0.000000 0.000000 0.000000 1.000000 1.000000 1.000000 1.000000
293.446198 0.000000 2403.779541 0.000000 0.000000 0.000000 1.000000 1.000000 1.000000 1.000000
290.452148 0.000000 2226.950684 0.000000 0.000000 0.000000 1.000000 1.000000 1.000000 1.000000
290.452148 0.000000 1974.128906 0.000000 0.000000 0.000000 1.000000 1.000000 1.000000 1.000000
290.452148 0.000000 1741.231689 0.000000 0.000000 0.000000 1.000000 1.000000 1.000000 1.000000
290.452148 0.000000 1513.500732 0.000000 0.000000 0.000000 1.000000 1.000000 1.000000 1.000000
161.945633 0.000000 4081.462158 0.000000 0.000000 0.000000 1.000000 1.000000 1.000000 1.000000
2347.285156 0.000000 4018.048340 0.000000 0.000000 0.000000 1.000000 1.000000 1.000000 1.000000
2576.581299 0.000000 3891.518555 0.000000 0.000000 0.000000 1.000000 1.000000 1.000000 1.000000
2547.096924 0.000000 4083.779053 0.000000 0.000000 0.000000 1.000000 1.000000 1.000000 1.000000
369.997925 0.000000 3266.972412 0.000000 0.000000 0.000000 1.000000 1.000000 1.000000 1.000000
622.598938 0.000000 3266.813965 0.000000 0.000000 0.000000 1.000000 1.000000 1.000000 1.000000
788.462952 0.000000 3379.260742 0.000000 0.000000 0.000000 1.000000 1.000000 1.000000 1.000000
394.015686 0.000000 1368.315186 0.000000 0.000000 0.000000 1.000000 1.000000 1.000000 1.000000
279.877380 0.000000 1219.728027 0.000000 0.000000 0.000000 1.000000 1.000000 1.000000 1.000000
260.418457 0.000000 275.870148 0.000000 0.000000 0.000000 1.000000 1.000000 1.000000 1.000000
431.622314 0.000000 87.422356 0.000000 0.000000 0.000000 1.000000 1.000000 1.000000 1.000000
786.493103 0.000000 51.371536 0.000000 0.000000 0.000000 1.000000 1.000000 1.000000 1.000000
1169.616943 0.000000 51.048325 0.000000 0.000000 0.000000 1.000000 1.000000 1.000000 1.000000
1413.113525 0.000000 51.048325 0.000000 0.000000 0.000000 1.000000 1.000000 1.000000 1.000000
3595.163330 0.000000 51.048355 0.000000 0.000000 0.000000 1.000000 1.000000 1.000000 1.000000
3935.284668 0.000000 51.048355 0.000000 0.000000 0.000000 1.000000 1.000000 1.000000 1.000000
4312.040039 0.000000 51.048355 0.000000 0.000000 0.000000 1.000000 1.000000 1.000000 1.000000
4669.316406 0.000000 51.048355 0.000000 0.000000 0.000000 1.000000 1.000000 1.000000 1.000000
5063.842285 0.000000 51.048355 0.000000 0.000000 0.000000 1.000000 1.000000 1.000000 1.000000
5458.687012 0.000000 51.048355 0.000000 0.000000 0.000000 1.000000 1.000000 1.000000 1.000000
5824.547363 0.000000 51.048355 0.000000 0.000000 0.000000 1.000000 1.000000 1.000000 1.000000
6210.020020 0.000000 51.048355 0.000000 0.000000 0.000000 1.000000 1.000000 1.000000 1.000000
6023.636230 0.000000 335.677246 0.000000 0.000000 0.000000 1.000000 1.000000 1.000000 1.000000
3196.779785 0.000000 763.640076 0.000000 0.000000 0.000000 1.000000 1.000000 1.000000 1.000000
3330.473633 0.000000 587.325439 0.000000 0.000000 0.000000 1.000000 1.000000 1.000000 1.000000
3542.731445 0.000000 478.262817 0.000000 0.000000 0.000000 1.000000 1.000000 1.000000 1.000000
3781.279541 0.000000 561.455322 0.000000 0.000000 0.000000 1.000000 1.000000 1.000000 1.000000
4005.462402 0.000000 711.638428 0.000000 0.000000 0.000000 1.000000 1.000000 1.000000 1.000000
4192.888184 0.000000 931.469116 0.000000 0.000000 0.000000 1.000000 1.000000 1.000000 1.000000
4069.119141 0.000000 1149.384888 0.000000 0.000000 0.000000 1.000000 1.000000 1.000000 1.000000
3855.055664 0.000000 1179.215454 0.000000 0.000000 0.000000 1.000000 1.000000 1.000000 1.000000
3626.870361 0.000000 1343.953857 0.000000 0.000000 0.000000 1.000000 1.000000 1.000000 1.000000
4415.666504 0.000000 1139.446045 0.000000 0.000000 0.000000 1.000000 1.000000 1.000000 1.000000
5016.047363 0.000000 381.129028 0.000000 0.000000 0.000000 1.000000 1.000000 1.000000 1.000000
5239.497559 0.000000 378.937561 0.000000 0.000000 0.000000 1.000000 1.000000 1.000000 1.000000
5477.495117 0.000000 972.551880 0.000000 0.000000 0.000000 1.000000 1.000000 1.000000 1.000000
5604.939941 0.000000 1132.805176 0.000000 0.000000 0.000000 1.000000 1.000000 1.000000 1.000000
5746.382813 0.000000 1189.490967 0.000000 0.000000 0.000000 1.000000 1.000000 1.000000 1.000000
5865.069824 0.000000 1034.572388 0.000000 0.000000 0.000000 1.000000 1.000000 1.000000 1.000000
3530.082764 0.000000 2354.816406 0.000000 0.000000 0.000000 1.000000 1.000000 1.000000 1.000000
3623.020264 0.000000 2415.174316 0.000000 0.000000 0.000000 1.000000 1.000000 1.000000 1.000000
3580.906494 0.000000 2201.670654 0.000000 0.000000 0.000000 1.000000 1.000000 1.000000 1.000000
3636.355957 0.000000 2059.381348 0.000000 0.000000 0.000000 1.000000 1.000000 1.000000 1.000000
3756.938477 0.000000 2081.740967 0.000000 0.000000 0.000000 1.000000 1.000000 1.000000 1.000000
3702.418457 0.000000 1933.568237 0.000000 0.000000 0.000000 1.000000 1.000000 1.000000 1.000000
3709.398438 0.000000 1821.469971 0.000000 0.000000 0.000000 1.000000 1.000000 1.000000 1.000000
6072.087891 0.000000 956.904907 0.000000 0.000000 0.000000 1.000000 1.000000 1.000000 1.000000
6093.543945 0.000000 864.859497 0.000000 0.000000 0.000000 1.000000 1.000000 1.000000 1.000000
6077.391602 0.000000 721.047119 0.000000 0.000000 0.000000 1.000000 1.000000 1.000000 1.000000
5944.565430 0.000000 774.659668 0.000000 0.000000 0.000000 1.000000 1.000000 1.000000 1.000000
5847.214355 0.000000 900.383667 0.000000 0.000000 0.000000 1.000000 1.000000 1.000000 1.000000
5958.899902 0.000000 619.051453 0.000000 0.000000 0.000000 1.000000 1.000000 1.000000 1.000000
6001.486328 0.000000 482.676025 0.000000 0.000000 0.000000 1.000000 1.000000 1.000000 1.000000
6077.981934 0.000000 587.905823 0.000000 0.000000 0.000000 1.000000 1.000000 1.000000 1.000000
5848.222656 0.000000 501.246399 0.000000 0.000000 0.000000 1.000000 1.000000 1.000000 1.000000
5885.165039 0.000000 351.554321 0.000000 0.000000 0.000000 1.000000 1.000000 1.000000 1.000000
5978.810059 0.000000 216.150482 0.000000 0.000000 0.000000 1.000000 1.000000 1.000000 1.000000
6116.608398 0.000000 222.927490 0.000000 0.000000 0.000000 1.000000 1.000000 1.000000 1.000000
6063.533203 0.000000 97.153183 0.000000 0.000000 0.000000 1.000000 1.000000 1.000000 1.000000
5948.696777 0.000000 26.185211 0.000000 0.000000 0.000000 1.000000 1.000000 1.000000 1.000000
5839.544434 0.000000 182.541275 0.000000 0.000000 0.000000 1.000000 1.000000 1.000000 1.000000
5711.776855 0.000000 292.256134 0.000000 0.000000 0.000000 1.000000 1.000000 1.000000 1.000000
5659.967285 0.000000 133.176178 0.000000 0.000000 0.000000 1.000000 1.000000 1.000000 1.000000
5519.783691 0.000000 187.036484 0.000000 0.000000 0.000000 1.000000 1.000000 1.000000 1.000000
5342.564453 0.000000 165.489059 0.000000 0.000000 0.000000 1.000000 1.000000 1.000000 1.000000
5281.784668 0.000000 37.006882 0.000000 0.000000 0.000000 1.000000 1.000000 1.000000 1.000000
5174.140137 0.000000 170.900162 0.000000 0.000000 0.000000 1.000000 1.000000 1.000000 1.000000
5026.908203 0.000000 206.718948 0.000000 0.000000 0.000000 1.000000 1.000000 1.000000 1.000000
4888.237793 0.000000 72.065285 0.000000 0.000000 0.000000 1.000000 1.000000 1.000000 1.000000
4823.422852 0.000000 209.466675 0.000000 0.000000 0.000000 1.000000 1.000000 1.000000 1.000000
4836.986328 0.000000 364.000244 0.000000 0.000000 0.000000 1.000000 1.000000 1.000000 1.000000
4296.582031 0.000000 744.585083 0.000000 0.000000 0.000000 1.000000 1.000000 1.000000 1.000000
4283.229004 0.000000 566.362183 0.000000 0.000000 0.000000 1.000000 1.000000 1.000000 1.000000
4335.941895 0.000000 431.752258 0.000000 0.000000 0.000000 1.000000 1.000000 1.000000 1.000000
4455.213867 0.000000 544.432312 0.000000 0.000000 0.000000 1.000000 1.000000 1.000000 1.000000
4645.051270 0.000000 453.265472 0.000000 0.000000 0.000000 1.000000 1.000000 1.000000 1.000000
4141.017578 0.000000 444.420349 0.000000 0.000000 0.000000 1.000000 1.000000 1.000000 1.000000
4210.241211 0.000000 291.904938 0.000000 0.000000 0.000000 1.000000 1.000000 1.000000 1.000000
4188.499023 0.000000 152.009506 0.000000 0.000000 0.000000 1.000000 1.000000 1.000000 1.000000
4129.977539 0.000000 20.986420 0.000000 0.000000 0.000000 1.000000 1.000000 1.000000 1.000000
4046.332520 0.000000 155.802917 0.000000 0.000000 0.000000 1.000000 1.000000 1.000000 1.000000
4063.854492 0.000000 294.953186 0.000000 0.000000 0.000000 1.000000 1.000000 1.000000 1.000000
3903.349121 0.000000 280.957458 0.000000 0.000000 0.000000 1.000000 1.000000 1.000000 1.000000
3764.542480 0.000000 156.624664 0.000000 0.000000 0.000000 1.000000 1.000000 1.000000 1.000000
3753.739990 0.000000 291.082458 0.000000 0.000000 0.000000 1.000000 1.000000 1.000000 1.000000
3843.560059 0.000000 423.657288 0.000000 0.000000 0.000000 1.000000 1.000000 1.000000 1.000000
3985.964844 0.000000 473.653503 0.000000 0.000000 0.000000 1.000000 1.000000 1.000000 1.000000
4113.846680 0.000000 608.932007 0.000000 0.000000 0.000000 1.000000 1.000000 1.000000 1.000000
3911.343994 0.000000 591.808411 0.000000 0.000000 0.000000 1.000000 1.000000 1.000000 1.000000
3852.509033 0.000000 692.875610 0.000000 0.000000 0.000000 1.000000 1.000000 1.000000 1.000000
3653.524414 0.000000 494.076813 0.000000 0.000000 0.000000 1.000000 1.000000 1.000000 1.000000
3259.231445 0.000000 694.603699 0.000000 0.000000 0.000000 1.000000 1.000000 1.000000 1.000000
3434.005127 0.000000 456.883331 0.000000 0.000000 0.000000 1.000000 1.000000 1.000000 1.000000
3764.082520 0.000000 32.086868 0.000000 0.000000 0.000000 1.000000 1.000000 1.000000 1.000000
4389.666504 0.000000 153.648880 0.000000 0.000000 0.000000 1.000000 1.000000 1.000000 1.000000
4486.624023 0.000000 57.191490 0.000000 0.000000 0.000000 1.000000 1.000000 1.000000 1.000000
4638.339844 0.000000 202.293594 0.000000 0.000000 0.000000 1.000000 1.000000 1.000000 1.000000
4344.573730 0.000000 940.324890 0.000000 0.000000 0.000000 1.000000 1.000000 1.000000 1.000000
4571.855957 0.000000 1166.113647 0.000000 0.000000 0.000000 1.000000 1.000000 1.000000 1.000000
5122.576172 0.000000 268.788361 0.000000 0.000000 0.000000 1.000000 1.000000 1.000000 1.000000
5258.355957 0.000000 246.041199 0.000000 0.000000 0.000000 1.000000 1.000000 1.000000 1.000000
5601.639160 0.000000 6.906136 0.000000 0.000000 0.000000 1.000000 1.000000 1.000000 1.000000
5711.700195 0.000000 11.215096 0.000000 0.000000 0.000000 1.000000 1.000000 1.000000 1.000000
6122.271973 0.000000 415.242432 0.000000 0.000000 0.000000 1.000000 1.000000 1.000000 1.000000
5951.583008 0.000000 879.203796 0.000000 0.000000 0.000000 1.000000 1.000000 1.000000 1.000000
5830.065430 0.000000 684.238647 0.000000 0.000000 0.000000 1.000000 1.000000 1.000000 1.000000
5678.972656 0.000000 695.534424 0.000000 0.000000 0.000000 1.000000 1.000000 1.000000 1.000000
5718.701172 0.000000 837.354919 0.000000 0.000000 0.000000 1.000000 1.000000 1.000000 1.000000
5693.673340 0.000000 958.098816 0.000000 0.000000 0.000000 1.000000 1.000000 1.000000 1.000000
5575.818359 0.000000 827.526367 0.000000 0.000000 0.000000 1.000000 1.000000 1.000000 1.000000
5467.636719 0.000000 693.756653 0.000000 0.000000 0.000000 1.000000 1.000000 1.000000 1.000000
5558.099609 0.000000 565.871582 0.000000 0.000000 0.000000 1.000000 1.000000 1.000000 1.000000
5422.479980 0.000000 462.849243 0.000000 0.000000 0.000000 1.000000 1.000000 1.000000 1.000000
5581.630859 0.000000 425.471191 0.000000 0.000000 0.000000 1.000000 1.000000 1.000000 1.000000
5710.248047 0.000000 425.320618 0.000000 0.000000 0.000000 1.000000 1.000000 1.000000 1.000000
5708.822266 0.000000 560.445129 0.000000 0.000000 0.000000 1.000000 1.000000 1.000000 1.000000
5569.548828 0.000000 298.384827 0.000000 0.000000 0.000000 1.000000 1.000000 1.000000 1.000000
3901.306396 0.000000 164.166733 0.000000 0.000000 0.000000 1.000000 1.000000 1.000000 1.000000
1292.836670 0.000000 95.894363 0.000000 0.000000 0.000000 1.000000 1.000000 1.000000 1.000000
981.997437 0.000000 43.634094 0.000000 0.000000 0.000000 1.000000 1.000000 1.000000 1.000000
584.874512 0.000000 37.630127 0.000000 0.000000 0.000000 1.000000 1.000000 1.000000 1.000000
236.446579 0.000000 149.041901 0.000000 0.000000 0.000000 1.000000 1.000000 1.000000 1.000000
75.075996 0.000000 128.971619 0.000000 0.000000 0.000000 1.000000 1.000000 1.000000 1.000000
142.765747 0.000000 1225.425659 0.000000 0.000000 0.000000 1.000000 1.000000 1.000000 1.000000
142.271301 0.000000 1399.659424 0.000000 0.000000 0.000000 1.000000 1.000000 1.000000 1.000000
323.559235 0.000000 1643.374023 0.000000 0.000000 0.000000 1.000000 1.000000 1.000000 1.000000
138.563354 0.000000 1956.622559 0.000000 0.000000 0.000000 1.000000 1.000000 1.000000 1.000000
110.095596 0.000000 2628.200928 0.000000 0.000000 0.000000 1.000000 1.000000 1.000000 1.000000
1298.928833 0.000000 4094.819824 0.000000 0.000000 0.000000 1.000000 1.000000 1.000000 1.000000
1570.918579 0.000000 4080.102539 0.000000 0.000000 0.000000 1.000000 1.000000 1.000000 1.000000
1804.548828 0.000000 4080.102539 0.000000 0.000000 0.000000 1.000000 1.000000 1.000000 1.000000
2539.752930 0.000000 3798.179199 0.000000 0.000000 0.000000 1.000000 1.000000 1.000000 1.000000
5820.086914 0.000000 803.052246 0.000000 0.000000 0.000000 1.000000 1.000000 1.000000 1.000000
5718.397461 0.000000 1083.919067 0.000000 0.000000 0.000000 1.000000 1.000000 1.000000 1.000000
6253.323730 0.000000 773.272217 0.000000 0.000000 0.000000 1.000000 1.000000 1.000000 1.000000
6248.076660 0.000000 625.526428 0.000000 0.000000 0.000000 1.000000 1.000000 1.000000 1.000000
6266.604980 0.000000 319.069672 0.000000 0.000000 0.000000 1.000000 1.000000 1.000000 1.000000
4663.000488 0.000000 331.262817 0.000000 0.000000 0.000000 1.000000 1.000000 1.000000 1.000000
4137.954590 0.000000 807.415833 0.000000 0.000000 0.000000 1.000000 1.000000 1.000000 1.000000
4236.303711 0.000000 1096.996948 0.000000 0.000000 0.000000 1.000000 1.000000 1.000000 1.000000
311.279022 0.000000 3157.103516 0.000000 0.000000 0.000000 1.000000 1.000000 1.000000 1.000000
"}
object={
	name="amb_3D_river_emitter"
	clamp_to_water_level=no
	render_under_water=no
	generated_content=no
	layer="building_layer"
	entity="map_ambient_3D_river"
	count=45
	transform="4428.443359 0.000000 358.669189 0.000000 0.000000 0.000000 1.000000 1.000000 1.000000 1.000000
767.308289 0.000000 532.062439 0.000000 0.000000 0.000000 1.000000 1.000000 1.000000 1.000000
911.648926 0.000000 641.666748 0.000000 0.000000 0.000000 1.000000 1.000000 1.000000 1.000000
1131.361328 0.000000 597.628296 0.000000 0.000000 0.000000 1.000000 1.000000 1.000000 1.000000
1003.829529 0.000000 656.590820 0.000000 0.000000 0.000000 1.000000 1.000000 1.000000 1.000000
1196.157593 0.000000 533.023376 0.000000 0.000000 0.000000 1.000000 1.000000 1.000000 1.000000
1272.468262 0.000000 454.770752 0.000000 0.000000 0.000000 1.000000 1.000000 1.000000 1.000000
1363.213623 0.000000 400.028564 0.000000 0.000000 0.000000 1.000000 1.000000 1.000000 1.000000
1401.434937 0.000000 320.605591 0.000000 0.000000 0.000000 1.000000 1.000000 1.000000 1.000000
1469.973145 0.000000 263.021912 0.000000 0.000000 0.000000 1.000000 1.000000 1.000000 1.000000
1531.043335 0.000000 193.017563 0.000000 0.000000 0.000000 1.000000 1.000000 1.000000 1.000000
1529.963501 0.000000 92.631348 0.000000 0.000000 0.000000 1.000000 1.000000 1.000000 1.000000
4548.791016 0.000000 1214.516602 0.000000 0.000000 0.000000 1.000000 1.000000 1.000000 1.000000
4528.233398 0.000000 1308.254639 0.000000 0.000000 0.000000 1.000000 1.000000 1.000000 1.000000
4581.362305 0.000000 1397.580078 0.000000 0.000000 0.000000 1.000000 1.000000 1.000000 1.000000
4646.330566 0.000000 1468.936890 0.000000 0.000000 0.000000 1.000000 1.000000 1.000000 1.000000
4726.667480 0.000000 1517.091553 0.000000 0.000000 0.000000 1.000000 1.000000 1.000000 1.000000
4801.419922 0.000000 1567.038574 0.000000 0.000000 0.000000 1.000000 1.000000 1.000000 1.000000
4638.750977 0.000000 1566.258667 0.000000 0.000000 0.000000 1.000000 1.000000 1.000000 1.000000
4652.691895 0.000000 1667.558105 0.000000 0.000000 0.000000 1.000000 1.000000 1.000000 1.000000
5524.575684 0.000000 1108.729614 0.000000 0.000000 0.000000 1.000000 1.000000 1.000000 1.000000
5393.774902 0.000000 1114.151978 0.000000 0.000000 0.000000 1.000000 1.000000 1.000000 1.000000
5452.793457 0.000000 1098.204102 0.000000 0.000000 0.000000 1.000000 1.000000 1.000000 1.000000
5637.009277 0.000000 1217.307617 0.000000 0.000000 0.000000 1.000000 1.000000 1.000000 1.000000
5593.452637 0.000000 1272.094849 0.000000 0.000000 0.000000 1.000000 1.000000 1.000000 1.000000
5570.040527 0.000000 1332.101685 0.000000 0.000000 0.000000 1.000000 1.000000 1.000000 1.000000
5515.551758 0.000000 1374.426880 0.000000 0.000000 0.000000 1.000000 1.000000 1.000000 1.000000
5394.125000 0.000000 1379.012451 0.000000 0.000000 0.000000 1.000000 1.000000 1.000000 1.000000
5303.096191 0.000000 1339.803467 0.000000 0.000000 0.000000 1.000000 1.000000 1.000000 1.000000
5180.111328 0.000000 1369.707397 0.000000 0.000000 0.000000 1.000000 1.000000 1.000000 1.000000
5636.454590 0.000000 1388.484619 0.000000 0.000000 0.000000 1.000000 1.000000 1.000000 1.000000
5725.459473 0.000000 1444.955078 0.000000 0.000000 0.000000 1.000000 1.000000 1.000000 1.000000
5886.250977 0.000000 1536.663574 0.000000 0.000000 0.000000 1.000000 1.000000 1.000000 1.000000
3446.740967 0.000000 2407.583008 0.000000 0.000000 0.000000 1.000000 1.000000 1.000000 1.000000
3336.996338 0.000000 2503.582764 0.000000 0.000000 0.000000 1.000000 1.000000 1.000000 1.000000
3260.666260 0.000000 2618.061523 0.000000 0.000000 0.000000 1.000000 1.000000 1.000000 1.000000
3314.635498 0.000000 2823.899658 0.000000 0.000000 0.000000 1.000000 1.000000 1.000000 1.000000
3252.482666 0.000000 2947.595703 0.000000 0.000000 0.000000 1.000000 1.000000 1.000000 1.000000
3341.619141 0.000000 3023.013672 0.000000 0.000000 0.000000 1.000000 1.000000 1.000000 1.000000
3518.770752 0.000000 3058.302246 0.000000 0.000000 0.000000 1.000000 1.000000 1.000000 1.000000
3624.024658 0.000000 3196.270752 0.000000 0.000000 0.000000 1.000000 1.000000 1.000000 1.000000
3209.623779 0.000000 3067.268311 0.000000 0.000000 0.000000 1.000000 1.000000 1.000000 1.000000
2198.286621 0.000000 2201.215820 0.000000 0.000000 0.000000 1.000000 1.000000 1.000000 1.000000
2768.917480 0.000000 2512.575684 0.000000 0.000000 0.000000 1.000000 1.000000 1.000000 1.000000
2560.249512 0.000000 2737.118896 0.000000 0.000000 0.000000 1.000000 1.000000 1.000000 1.000000
"}
